%YAML 1.1
%TAG !u! tag:unity3d.com,2011:
--- !u!114 &11400000
MonoBehaviour:
  m_ObjectHideFlags: 0
  m_PrefabParentObject: {fileID: 0}
  m_PrefabInternal: {fileID: 0}
  m_GameObject: {fileID: 0}
  m_Enabled: 1
  m_EditorHideFlags: 0
  m_Script: {fileID: 11500000, guid: 90f41e24dde9bcd4b9a0922c501d9b2d, type: 3}
  m_Name: Move2LeftCard
  m_EditorClassIdentifier: 
  cardName: Move 2 Left
  cardArt: {fileID: 21300000, guid: 0beec40108280a946b6bb98374446a44, type: 3}
  direction: 0
  numLanes: 2
